Flask==3.0.3
Flask-Migrate==4.0.7
Flask-RESTful==0.3.10
Flask-Cors==5.0.0
SQLAlchemy==2.0.35
Flask-SQLAlchemy==3.1.1
marshmallow==3.22.0
flask-marshmallow==1.2.1
marshmallow-sqlalchemy==1.1.0
geojson==3.1.0
